{"data": [{"first_name": "Arun", "last_name": "Khatri", "position": "Chief Executive Officer", "source_page": "https://www.linkedin.com/in/arun-khatri-42934657", "emails": {"searching_date": "2026-01-13 08:36:03", "emails": [{"email": "arun.khatri@digitalnetwork.com.np", "smtp_status": "valid"}]}}, {"first_name": "Saugat", "last_name": "Shrestha", "position": "Operations Officer", "source_page": "https://www.linkedin.com/in/saugat-shrestha-220369152", "emails": {"searching_date": "2026-01-13 08:36:05", "emails": [{"email": "saugat.shrestha@digitalnetwork.com.np", "smtp_status": "valid"}]}}, {"first_name": "SUCHITA", "last_name": "S.", "position": "Business Development Manager", "source_page": "https://www.linkedin.com/in/suchita-s-489987137/", "emails": []}, {"first_name": "sushma", "last_name": "gurung", "position": "Business Development Manager", "source_page": "https://www.linkedin.com/in/sushma-gurung-77bb54bb/", "emails": []}, {"first_name": "Sudan", "last_name": "Dhakal", "position": "Chief Technology Officer", "source_page": "https://www.linkedin.com/in/sudandhakal", "emails": {"searching_date": "2026-01-13 08:36:12", "emails": [{"email": "sudan.dhakal@digitalnetwork.com.np", "smtp_status": "valid"}]}}, {"first_name": "Anurag", "last_name": "Thapa", "position": "Business Development Manager", "source_page": "https://www.linkedin.com/in/anurag-thapa-62b3b1b4", "emails": []}, {"first_name": "Seetal", "last_name": "Bhattarai", "position": "HR Manager", "source_page": "https://www.linkedin.com/in/seetal-bhattarai-366b4a180", "emails": {"searching_date": "2026-01-13 08:36:17", "emails": [{"email": "seetal.bhattarai@digitalnetwork.com.np", "smtp_status": "valid"}]}}, {"first_name": "Nishal", "last_name": "Rai", "position": "Team Lead Application Security Engineer", "source_page": "https://www.linkedin.com/in/nishalrai", "emails": {"searching_date": "2026-01-13 08:36:19", "emails": [{"email": "nishal.rai@digitalnetwork.com.np", "smtp_status": "valid"}]}}, {"first_name": "Md siddik ahmed", "last_name": "Sumon", "position": "Information Specialist", "source_page": "https://www.linkedin.com/in/md-siddik-ahmed-sumon-aa0a26223", "emails": []}, {"first_name": "Salil", "last_name": "Maharjan", "position": "Application Security Engineer", "source_page": "https://www.linkedin.com/in/salil-maharjan-950bbb171", "emails": []}, {"first_name": "sabina", "last_name": "bhattarai", "position": "Finance Account Officer", "source_page": "https://www.linkedin.com/in/sabina-bhattarai-584529290", "emails": {"searching_date": "2026-01-13 08:36:27", "emails": [{"email": "sabina.bhattarai@digitalnetwork.com.np", "smtp_status": "valid"}]}}, {"first_name": "Rachana", "last_name": "Shakya", "position": "Banking and Finance Officer", "source_page": "https://www.linkedin.com/in/rachana-shakya-7384621a7", "emails": []}, {"first_name": "Meena", "last_name": "lama", "position": "Front Desk Officer", "source_page": "https://www.linkedin.com/in/meena-lama-6b886620a", "emails": []}, {"first_name": "Yanjan", "last_name": "Acharya", "position": "Technical Manager - Professional Services", "source_page": "https://www.linkedin.com/in/yanjan-acharya-31807958", "emails": {"searching_date": "2026-01-13 08:36:34", "emails": [{"email": "yanjan.acharya@digitalnetwork.com.np", "smtp_status": "valid"}]}}, {"first_name": "Samir", "last_name": "Deshar", "position": "Application Security Engineer", "source_page": "https://www.linkedin.com/in/samirdeshar", "emails": {"searching_date": "2026-01-13 08:36:36", "emails": [{"email": "samir.deshar@digitalnetwork.com.np", "smtp_status": "valid"}]}}, {"first_name": "sangita", "last_name": "magar", "position": "Front Desk Officer", "source_page": "https://www.linkedin.com/in/sangita-magar-b16796148", "emails": []}, {"first_name": "Mangale", "last_name": "Lopchan", "position": "Infrastructure Engineer", "source_page": "https://www.linkedin.com/in/mangal-lopchan", "emails": []}, {"first_name": "Ujwal", "last_name": "Baiju", "position": "Finance Manager", "source_page": "https://www.linkedin.com/in/ujwal-baiju-32226a151", "emails": []}, {"first_name": "Ashray", "last_name": "Thapa", "position": "Business Development Officer", "source_page": "https://www.linkedin.com/in/ashray-thapa-632ab0185", "emails": {"searching_date": "2026-01-13 08:36:46", "emails": [{"email": "ashray.thapa@digitalnetwork.com.np", "smtp_status": "valid"}]}}, {"first_name": "Anita", "last_name": "Prajapati", "position": "Business Development Officer", "source_page": "https://www.linkedin.com/in/anita-prajapati-400400147", "emails": {"searching_date": "2026-01-13 08:36:48", "emails": [{"email": "anita.prajapati@digitalnetwork.com.np", "smtp_status": "unknown"}]}}], "meta": {"domain": "digitalnetwork.com.np", "tab": "prospects", "task_hash": "cbec77e00b6cf2f43ca50141b23f4458", "page": 1, "positions": [], "total_count": 49}, "links": {"next": "https://api.snov.io/v2/domain-search/prospects/start?domain=digitalnetwork.com.np&page=2"}, "status": "completed"}