{"data": [{"first_name": "Nirmal", "last_name": "Dahal", "position": "Chief Technology Officer", "source_page": "https://www.linkedin.com/in/thenittam", "emails": {"searching_date": "2026-01-13 05:15:48", "emails": [{"email": "nirmal.dahal@cryptogennepal.com", "smtp_status": "valid"}]}}, {"first_name": "Kelvin", "last_name": "William", "position": "Cryptocurrency Trader", "source_page": "https://www.linkedin.com/in/kelvin-william-b32527227", "emails": []}, {"first_name": "Aaditya", "last_name": "Khati", "position": "Technical Manager | Team, Pre-Sales", "source_page": "https://www.linkedin.com/in/callmecurly", "emails": {"searching_date": "2026-01-13 08:17:01", "emails": [{"email": "aaditya.khati@cryptogennepal.com", "smtp_status": "valid"}]}}, {"first_name": "Shreenkhala", "last_name": "Bhattarai", "position": "SOC Team Lead", "source_page": "https://www.linkedin.com/in/shreenkhala-bhattarai", "emails": {"searching_date": "2026-01-13 08:17:03", "emails": [{"email": "shreenkhala.bhattarai@cryptogennepal.com", "smtp_status": "valid"}]}}, {"first_name": "Bigyan", "last_name": "Koirala", "position": "SOC (SIEM) Engineer", "source_page": "https://www.linkedin.com/in/bigyankoirala99", "emails": []}, {"first_name": "Pradip", "last_name": "Bhattarai", "position": "Security Research Engineer", "source_page": "https://www.linkedin.com/in/prdp", "emails": []}, {"first_name": "Er. Rupak", "last_name": "R.", "position": "Security Operations Engineer", "source_page": "https://www.linkedin.com/in/er-rupakrajbanshi", "emails": []}, {"first_name": "Dikshya", "last_name": "Shrestha", "position": "Offensive Security Intern", "source_page": "https://www.linkedin.com/in/dikshya-stha/", "emails": []}, {"first_name": "Bikram", "last_name": "Kharal", "position": "Offensive Security Analyst", "source_page": "https://www.linkedin.com/in/themarkib/", "emails": {"searching_date": "2026-01-13 08:20:12", "emails": [{"email": "bikram.kharal@cryptogennepal.com", "smtp_status": "valid"}]}}, {"first_name": "Gaurav", "last_name": "Dahal", "position": "Associate SOC Analyst", "source_page": "https://www.linkedin.com/in/gaurav-dahal-a35253267", "emails": {"searching_date": "2026-01-13 08:20:14", "emails": [{"email": "gaurav.dahal@cryptogennepal.com", "smtp_status": "valid"}]}}, {"first_name": "Arbind", "last_name": "Shakya", "position": "SOC Engineer", "source_page": "https://www.linkedin.com/in/4rbind", "emails": {"searching_date": "2026-01-13 08:20:16", "emails": [{"email": "arbind.shakya@cryptogennepal.com", "smtp_status": "valid"}]}}, {"first_name": "Sachit", "last_name": "Mainali", "position": "IS Auditor", "source_page": "https://www.linkedin.com/in/sachit-mainali", "emails": {"searching_date": "2026-01-13 08:20:19", "emails": [{"email": "sachit.mainali@cryptogennepal.com", "smtp_status": "valid"}]}}, {"first_name": "Satish", "last_name": "Tamrakar", "position": "Project Manager", "source_page": "https://www.linkedin.com/in/satishtamrakar", "emails": {"searching_date": "2026-01-13 08:20:21", "emails": [{"email": "satish.tamrakar@cryptogennepal.com", "smtp_status": "valid"}]}}, {"first_name": "Saksham", "last_name": "Bhattarai", "position": "SOC Analyst", "source_page": "https://www.linkedin.com/in/sakshambhattarai", "emails": {"searching_date": "2026-01-13 08:20:23", "emails": [{"email": "saksham.bhattarai@cryptogennepal.com", "smtp_status": "valid"}]}}, {"first_name": "Sujal", "last_name": "Tuladhar", "position": "Offensive Security Analyst", "source_page": "https://www.linkedin.com/in/sujal-tuladhar", "emails": {"searching_date": "2026-01-13 08:20:26", "emails": [{"email": "sujal.tuladhar@cryptogennepal.com", "smtp_status": "valid"}]}}, {"first_name": "Prason", "last_name": "Pandey", "position": "Research And Development Engineer", "source_page": "https://www.linkedin.com/in/itsprason", "emails": {"searching_date": "2026-01-13 08:20:28", "emails": [{"email": "prason.pandey@cryptogennepal.com", "smtp_status": "valid"}]}}, {"first_name": "Rima", "last_name": "Banjara", "position": "SIEM Engineer", "source_page": "https://www.linkedin.com/in/rima-banjara-349891239", "emails": {"searching_date": "2026-01-13 08:20:31", "emails": [{"email": "rima.banjara@cryptogennepal.com", "smtp_status": "valid"}]}}, {"first_name": "Bineet", "last_name": "R.", "position": "SOC - AI Engineer", "source_page": "https://www.linkedin.com/in/bineet-r-a5752a302", "emails": []}, {"first_name": "Sachin", "last_name": "Gautam", "position": "SOC Analyst Intern", "source_page": "https://www.linkedin.com/in/sachingautam01", "emails": {"searching_date": "2026-01-13 08:20:36", "emails": [{"email": "sachin.gautam@cryptogennepal.com", "smtp_status": "valid"}]}}, {"first_name": "Shristi", "last_name": "B.", "position": "Technical Pre Sales", "source_page": "https://www.linkedin.com/in/shristiib", "emails": []}], "meta": {"domain": "cryptogennepal.com", "tab": "prospects", "task_hash": "bae7cd48bfc1d49062a6857bfedc44cd", "page": 1, "positions": [], "total_count": 38}, "links": {"next": "https://api.snov.io/v2/domain-search/prospects/start?domain=cryptogennepal.com&page=2"}, "status": "completed"}